ip_2port_ram/rtl/syn/.Xil/Vivado-10196-LAPTOP-SC6EAKJG/hw_ila_data_1/zip_work/waveform.vcd
$date
        2024-Apr-01 21:43:28
$end
$version
        Vivado v2017.4 (64-bit)
$end
$timescale
        1ps
$end
$scope module dut $end
$var reg 1 " ram_wr_en $end
$var reg 1 # ram_wr_we $end
$var reg 1 $ ram_rd_en $end
$var reg 1 % rd_flag $end
$var reg 6 & ram_wr_addr [5:0] $end
$var reg 8 , ram_wr_data [7:0] $end
$var reg 6 4 ram_rd_addr [5:0] $end
$var reg 8 : ram_rd_data [7:0] $end
$var reg 1 B _TRIGGER $end
$var reg 1 C _WINDOW $end
$var reg 1 D _GAP $end
$upscope $end
$enddefinitions $end
#0
$dumpvars
1"
1#
1$
1%
b11111 &
b11111 ,
b111111 4
b111110 :
0B
1C
0D
$end
#1
b100000 &
b100000 ,
b0 4
b111111 :
#2
b100001 &
b100001 ,
b1 4
b0 :
#3
b100010 &
b100010 ,
b10 4
b1 :
#4
b100011 &
b100011 ,
b11 4
b10 :
#5
b100100 &
b100100 ,
b100 4
b11 :
#6
b100101 &
b100101 ,
b101 4
b100 :
#7
b100110 &
b100110 ,
b110 4
b101 :
#8
b100111 &
b100111 ,
b111 4
b110 :
#9
b101000 &
b101000 ,
b1000 4
b111 :
#10
b101001 &
b101001 ,
b1001 4
b1000 :
#11
b101010 &
b101010 ,
b1010 4
b1001 :
#12
b101011 &
b101011 ,
b1011 4
b1010 :
#13
b101100 &
b101100 ,
b1100 4
b1011 :
#14
b101101 &
b101101 ,
b1101 4
b1100 :
#15
b101110 &
b101110 ,
b1110 4
b1101 :
#16
b101111 &
b101111 ,
b1111 4
b1110 :
#17
b110000 &
b110000 ,
b10000 4
b1111 :
#18
b110001 &
b110001 ,
b10001 4
b10000 :
#19
b110010 &
b110010 ,
b10010 4
b10001 :
#20
b110011 &
b110011 ,
b10011 4
b10010 :
#21
b110100 &
b110100 ,
b10100 4
b10011 :
#22
b110101 &
b110101 ,
b10101 4
b10100 :
#23
b110110 &
b110110 ,
b10110 4
b10101 :
#24
b110111 &
b110111 ,
b10111 4
b10110 :
#25
b111000 &
b111000 ,
b11000 4
b10111 :
#26
b111001 &
b111001 ,
b11001 4
b11000 :
#27
b111010 &
b111010 ,
b11010 4
b11001 :
#28
b111011 &
b111011 ,
b11011 4
b11010 :
#29
b111100 &
b111100 ,
b11100 4
b11011 :
#30
b111101 &
b111101 ,
b11101 4
b11100 :
#31
b111110 &
b111110 ,
b11110 4
b11101 :
#32
b111111 &
b111111 ,
b11111 4
b11110 :
#33
b0 &
b0 ,
b100000 4
b11111 :
#34
b1 &
b1 ,
b100001 4
b100000 :
#35
b10 &
b10 ,
b100010 4
b100001 :
#36
b11 &
b11 ,
b100011 4
b100010 :
#37
b100 &
b100 ,
b100100 4
b100011 :
#38
b101 &
b101 ,
b100101 4
b100100 :
#39
b110 &
b110 ,
b100110 4
b100101 :
#40
b111 &
b111 ,
b100111 4
b100110 :
#41
b1000 &
b1000 ,
b101000 4
b100111 :
#42
b1001 &
b1001 ,
b101001 4
b101000 :
#43
b1010 &
b1010 ,
b101010 4
b101001 :
#44
b1011 &
b1011 ,
b101011 4
b101010 :
#45
b1100 &
b1100 ,
b101100 4
b101011 :
#46
b1101 &
b1101 ,
b101101 4
b101100 :
#47
b1110 &
b1110 ,
b101110 4
b101101 :
#48
b1111 &
b1111 ,
b101111 4
b101110 :
#49
b10000 &
b10000 ,
b110000 4
b101111 :
#50
b10001 &
b10001 ,
b110001 4
b110000 :
#51
b10010 &
b10010 ,
b110010 4
b110001 :
#52
b10011 &
b10011 ,
b110011 4
b110010 :
#53
b10100 &
b10100 ,
b110100 4
b110011 :
#54
b10101 &
b10101 ,
b110101 4
b110100 :
#55
b10110 &
b10110 ,
b110110 4
b110101 :
#56
b10111 &
b10111 ,
b110111 4
b110110 :
#57
b11000 &
b11000 ,
b111000 4
b110111 :
#58
b11001 &
b11001 ,
b111001 4
b111000 :
#59
b11010 &
b11010 ,
b111010 4
b111001 :
#60
b11011 &
b11011 ,
b111011 4
b111010 :
#61
b11100 &
b11100 ,
b111100 4
b111011 :
#62
b11101 &
b11101 ,
b111101 4
b111100 :
#63
b11110 &
b11110 ,
b111110 4
b111101 :
#64
b11111 &
b11111 ,
b111111 4
b111110 :
#65
b100000 &
b100000 ,
b0 4
b111111 :
#66
b100001 &
b100001 ,
b1 4
b0 :
#67
b100010 &
b100010 ,
b10 4
b1 :
#68
b100011 &
b100011 ,
b11 4
b10 :
#69
b100100 &
b100100 ,
b100 4
b11 :
#70
b100101 &
b100101 ,
b101 4
b100 :
#71
b100110 &
b100110 ,
b110 4
b101 :
#72
b100111 &
b100111 ,
b111 4
b110 :
#73
b101000 &
b101000 ,
b1000 4
b111 :
#74
b101001 &
b101001 ,
b1001 4
b1000 :
#75
b101010 &
b101010 ,
b1010 4
b1001 :
#76
b101011 &
b101011 ,
b1011 4
b1010 :
#77
b101100 &
b101100 ,
b1100 4
b1011 :
#78
b101101 &
b101101 ,
b1101 4
b1100 :
#79
b101110 &
b101110 ,
b1110 4
b1101 :
#80
b101111 &
b101111 ,
b1111 4
b1110 :
#81
b110000 &
b110000 ,
b10000 4
b1111 :
#82
b110001 &
b110001 ,
b10001 4
b10000 :
#83
b110010 &
b110010 ,
b10010 4
b10001 :
#84
b110011 &
b110011 ,
b10011 4
b10010 :
#85
b110100 &
b110100 ,
b10100 4
b10011 :
#86
b110101 &
b110101 ,
b10101 4
b10100 :
#87
b110110 &
b110110 ,
b10110 4
b10101 :
#88
b110111 &
b110111 ,
b10111 4
b10110 :
#89
b111000 &
b111000 ,
b11000 4
b10111 :
#90
b111001 &
b111001 ,
b11001 4
b11000 :
#91
b111010 &
b111010 ,
b11010 4
b11001 :
#92
b111011 &
b111011 ,
b11011 4
b11010 :
#93
b111100 &
b111100 ,
b11100 4
b11011 :
#94
b111101 &
b111101 ,
b11101 4
b11100 :
#95
b111110 &
b111110 ,
b11110 4
b11101 :
#96
b111111 &
b111111 ,
b11111 4
b11110 :
#97
b0 &
b0 ,
b100000 4
b11111 :
#98
b1 &
b1 ,
b100001 4
b100000 :
#99
b10 &
b10 ,
b100010 4
b100001 :
#100
b11 &
b11 ,
b100011 4
b100010 :
#101
b100 &
b100 ,
b100100 4
b100011 :
#102
b101 &
b101 ,
b100101 4
b100100 :
#103
b110 &
b110 ,
b100110 4
b100101 :
#104
b111 &
b111 ,
b100111 4
b100110 :
#105
b1000 &
b1000 ,
b101000 4
b100111 :
#106
b1001 &
b1001 ,
b101001 4
b101000 :
#107
b1010 &
b1010 ,
b101010 4
b101001 :
#108
b1011 &
b1011 ,
b101011 4
b101010 :
#109
b1100 &
b1100 ,
b101100 4
b101011 :
#110
b1101 &
b1101 ,
b101101 4
b101100 :
#111
b1110 &
b1110 ,
b101110 4
b101101 :
#112
b1111 &
b1111 ,
b101111 4
b101110 :
#113
b10000 &
b10000 ,
b110000 4
b101111 :
#114
b10001 &
b10001 ,
b110001 4
b110000 :
#115
b10010 &
b10010 ,
b110010 4
b110001 :
#116
b10011 &
b10011 ,
b110011 4
b110010 :
#117
b10100 &
b10100 ,
b110100 4
b110011 :
#118
b10101 &
b10101 ,
b110101 4
b110100 :
#119
b10110 &
b10110 ,
b110110 4
b110101 :
#120
b10111 &
b10111 ,
b110111 4
b110110 :
#121
b11000 &
b11000 ,
b111000 4
b110111 :
#122
b11001 &
b11001 ,
b111001 4
b111000 :
#123
b11010 &
b11010 ,
b111010 4
b111001 :
#124
b11011 &
b11011 ,
b111011 4
b111010 :
#125
b11100 &
b11100 ,
b111100 4
b111011 :
#126
b11101 &
b11101 ,
b111101 4
b111100 :
#127
b11110 &
b11110 ,
b111110 4
b111101 :
#128
b11111 &
b11111 ,
b111111 4
b111110 :
#129
b100000 &
b100000 ,
b0 4
b111111 :
#130
b100001 &
b100001 ,
b1 4
b0 :
#131
b100010 &
b100010 ,
b10 4
b1 :
#132
b100011 &
b100011 ,
b11 4
b10 :
#133
b100100 &
b100100 ,
b100 4
b11 :
#134
b100101 &
b100101 ,
b101 4
b100 :
#135
b100110 &
b100110 ,
b110 4
b101 :
#136
b100111 &
b100111 ,
b111 4
b110 :
#137
b101000 &
b101000 ,
b1000 4
b111 :
#138
b101001 &
b101001 ,
b1001 4
b1000 :
#139
b101010 &
b101010 ,
b1010 4
b1001 :
#140
b101011 &
b101011 ,
b1011 4
b1010 :
#141
b101100 &
b101100 ,
b1100 4
b1011 :
#142
b101101 &
b101101 ,
b1101 4
b1100 :
#143
b101110 &
b101110 ,
b1110 4
b1101 :
#144
b101111 &
b101111 ,
b1111 4
b1110 :
#145
b110000 &
b110000 ,
b10000 4
b1111 :
#146
b110001 &
b110001 ,
b10001 4
b10000 :
#147
b110010 &
b110010 ,
b10010 4
b10001 :
#148
b110011 &
b110011 ,
b10011 4
b10010 :
#149
b110100 &
b110100 ,
b10100 4
b10011 :
#150
b110101 &
b110101 ,
b10101 4
b10100 :
#151
b110110 &
b110110 ,
b10110 4
b10101 :
#152
b110111 &
b110111 ,
b10111 4
b10110 :
#153
b111000 &
b111000 ,
b11000 4
b10111 :
#154
b111001 &
b111001 ,
b11001 4
b11000 :
#155
b111010 &
b111010 ,
b11010 4
b11001 :
#156
b111011 &
b111011 ,
b11011 4
b11010 :
#157
b111100 &
b111100 ,
b11100 4
b11011 :
#158
b111101 &
b111101 ,
b11101 4
b11100 :
#159
b111110 &
b111110 ,
b11110 4
b11101 :
#160
b111111 &
b111111 ,
b11111 4
b11110 :
#161
b0 &
b0 ,
b100000 4
b11111 :
#162
b1 &
b1 ,
b100001 4
b100000 :
#163
b10 &
b10 ,
b100010 4
b100001 :
#164
b11 &
b11 ,
b100011 4
b100010 :
#165
b100 &
b100 ,
b100100 4
b100011 :
#166
b101 &
b101 ,
b100101 4
b100100 :
#167
b110 &
b110 ,
b100110 4
b100101 :
#168
b111 &
b111 ,
b100111 4
b100110 :
#169
b1000 &
b1000 ,
b101000 4
b100111 :
#170
b1001 &
b1001 ,
b101001 4
b101000 :
#171
b1010 &
b1010 ,
b101010 4
b101001 :
#172
b1011 &
b1011 ,
b101011 4
b101010 :
#173
b1100 &
b1100 ,
b101100 4
b101011 :
#174
b1101 &
b1101 ,
b101101 4
b101100 :
#175
b1110 &
b1110 ,
b101110 4
b101101 :
#176
b1111 &
b1111 ,
b101111 4
b101110 :
#177
b10000 &
b10000 ,
b110000 4
b101111 :
#178
b10001 &
b10001 ,
b110001 4
b110000 :
#179
b10010 &
b10010 ,
b110010 4
b110001 :
#180
b10011 &
b10011 ,
b110011 4
b110010 :
#181
b10100 &
b10100 ,
b110100 4
b110011 :
#182
b10101 &
b10101 ,
b110101 4
b110100 :
#183
b10110 &
b10110 ,
b110110 4
b110101 :
#184
b10111 &
b10111 ,
b110111 4
b110110 :
#185
b11000 &
b11000 ,
b111000 4
b110111 :
#186
b11001 &
b11001 ,
b111001 4
b111000 :
#187
b11010 &
b11010 ,
b111010 4
b111001 :
#188
b11011 &
b11011 ,
b111011 4
b111010 :
#189
b11100 &
b11100 ,
b111100 4
b111011 :
#190
b11101 &
b11101 ,
b111101 4
b111100 :
#191
b11110 &
b11110 ,
b111110 4
b111101 :
#192
b11111 &
b11111 ,
b111111 4
b111110 :
#193
b100000 &
b100000 ,
b0 4
b111111 :
#194
b100001 &
b100001 ,
b1 4
b0 :
#195
b100010 &
b100010 ,
b10 4
b1 :
#196
b100011 &
b100011 ,
b11 4
b10 :
#197
b100100 &
b100100 ,
b100 4
b11 :
#198
b100101 &
b100101 ,
b101 4
b100 :
#199
b100110 &
b100110 ,
b110 4
b101 :
#200
b100111 &
b100111 ,
b111 4
b110 :
#201
b101000 &
b101000 ,
b1000 4
b111 :
#202
b101001 &
b101001 ,
b1001 4
b1000 :
#203
b101010 &
b101010 ,
b1010 4
b1001 :
#204
b101011 &
b101011 ,
b1011 4
b1010 :
#205
b101100 &
b101100 ,
b1100 4
b1011 :
#206
b101101 &
b101101 ,
b1101 4
b1100 :
#207
b101110 &
b101110 ,
b1110 4
b1101 :
#208
b101111 &
b101111 ,
b1111 4
b1110 :
#209
b110000 &
b110000 ,
b10000 4
b1111 :
#210
b110001 &
b110001 ,
b10001 4
b10000 :
#211
b110010 &
b110010 ,
b10010 4
b10001 :
#212
b110011 &
b110011 ,
b10011 4
b10010 :
#213
b110100 &
b110100 ,
b10100 4
b10011 :
#214
b110101 &
b110101 ,
b10101 4
b10100 :
#215
b110110 &
b110110 ,
b10110 4
b10101 :
#216
b110111 &
b110111 ,
b10111 4
b10110 :
#217
b111000 &
b111000 ,
b11000 4
b10111 :
#218
b111001 &
b111001 ,
b11001 4
b11000 :
#219
b111010 &
b111010 ,
b11010 4
b11001 :
#220
b111011 &
b111011 ,
b11011 4
b11010 :
#221
b111100 &
b111100 ,
b11100 4
b11011 :
#222
b111101 &
b111101 ,
b11101 4
b11100 :
#223
b111110 &
b111110 ,
b11110 4
b11101 :
#224
b111111 &
b111111 ,
b11111 4
b11110 :
#225
b0 &
b0 ,
b100000 4
b11111 :
#226
b1 &
b1 ,
b100001 4
b100000 :
#227
b10 &
b10 ,
b100010 4
b100001 :
#228
b11 &
b11 ,
b100011 4
b100010 :
#229
b100 &
b100 ,
b100100 4
b100011 :
#230
b101 &
b101 ,
b100101 4
b100100 :
#231
b110 &
b110 ,
b100110 4
b100101 :
#232
b111 &
b111 ,
b100111 4
b100110 :
#233
b1000 &
b1000 ,
b101000 4
b100111 :
#234
b1001 &
b1001 ,
b101001 4
b101000 :
#235
b1010 &
b1010 ,
b101010 4
b101001 :
#236
b1011 &
b1011 ,
b101011 4
b101010 :
#237
b1100 &
b1100 ,
b101100 4
b101011 :
#238
b1101 &
b1101 ,
b101101 4
b101100 :
#239
b1110 &
b1110 ,
b101110 4
b101101 :
#240
b1111 &
b1111 ,
b101111 4
b101110 :
#241
b10000 &
b10000 ,
b110000 4
b101111 :
#242
b10001 &
b10001 ,
b110001 4
b110000 :
#243
b10010 &
b10010 ,
b110010 4
b110001 :
#244
b10011 &
b10011 ,
b110011 4
b110010 :
#245
b10100 &
b10100 ,
b110100 4
b110011 :
#246
b10101 &
b10101 ,
b110101 4
b110100 :
#247
b10110 &
b10110 ,
b110110 4
b110101 :
#248
b10111 &
b10111 ,
b110111 4
b110110 :
#249
b11000 &
b11000 ,
b111000 4
b110111 :
#250
b11001 &
b11001 ,
b111001 4
b111000 :
#251
b11010 &
b11010 ,
b111010 4
b111001 :
#252
b11011 &
b11011 ,
b111011 4
b111010 :
#253
b11100 &
b11100 ,
b111100 4
b111011 :
#254
b11101 &
b11101 ,
b111101 4
b111100 :
#255
b11110 &
b11110 ,
b111110 4
b111101 :
#256
b11111 &
b11111 ,
b111111 4
b111110 :
#257
b100000 &
b100000 ,
b0 4
b111111 :
#258
b100001 &
b100001 ,
b1 4
b0 :
#259
b100010 &
b100010 ,
b10 4
b1 :
#260
b100011 &
b100011 ,
b11 4
b10 :
#261
b100100 &
b100100 ,
b100 4
b11 :
#262
b100101 &
b100101 ,
b101 4
b100 :
#263
b100110 &
b100110 ,
b110 4
b101 :
#264
b100111 &
b100111 ,
b111 4
b110 :
#265
b101000 &
b101000 ,
b1000 4
b111 :
#266
b101001 &
b101001 ,
b1001 4
b1000 :
#267
b101010 &
b101010 ,
b1010 4
b1001 :
#268
b101011 &
b101011 ,
b1011 4
b1010 :
#269
b101100 &
b101100 ,
b1100 4
b1011 :
#270
b101101 &
b101101 ,
b1101 4
b1100 :
#271
b101110 &
b101110 ,
b1110 4
b1101 :
#272
b101111 &
b101111 ,
b1111 4
b1110 :
#273
b110000 &
b110000 ,
b10000 4
b1111 :
#274
b110001 &
b110001 ,
b10001 4
b10000 :
#275
b110010 &
b110010 ,
b10010 4
b10001 :
#276
b110011 &
b110011 ,
b10011 4
b10010 :
#277
b110100 &
b110100 ,
b10100 4
b10011 :
#278
b110101 &
b110101 ,
b10101 4
b10100 :
#279
b110110 &
b110110 ,
b10110 4
b10101 :
#280
b110111 &
b110111 ,
b10111 4
b10110 :
#281
b111000 &
b111000 ,
b11000 4
b10111 :
#282
b111001 &
b111001 ,
b11001 4
b11000 :
#283
b111010 &
b111010 ,
b11010 4
b11001 :
#284
b111011 &
b111011 ,
b11011 4
b11010 :
#285
b111100 &
b111100 ,
b11100 4
b11011 :
#286
b111101 &
b111101 ,
b11101 4
b11100 :
#287
b111110 &
b111110 ,
b11110 4
b11101 :
#288
b111111 &
b111111 ,
b11111 4
b11110 :
#289
b0 &
b0 ,
b100000 4
b11111 :
#290
b1 &
b1 ,
b100001 4
b100000 :
#291
b10 &
b10 ,
b100010 4
b100001 :
#292
b11 &
b11 ,
b100011 4
b100010 :
#293
b100 &
b100 ,
b100100 4
b100011 :
#294
b101 &
b101 ,
b100101 4
b100100 :
#295
b110 &
b110 ,
b100110 4
b100101 :
#296
b111 &
b111 ,
b100111 4
b100110 :
#297
b1000 &
b1000 ,
b101000 4
b100111 :
#298
b1001 &
b1001 ,
b101001 4
b101000 :
#299
b1010 &
b1010 ,
b101010 4
b101001 :
#300
b1011 &
b1011 ,
b101011 4
b101010 :
#301
b1100 &
b1100 ,
b101100 4
b101011 :
#302
b1101 &
b1101 ,
b101101 4
b101100 :
#303
b1110 &
b1110 ,
b101110 4
b101101 :
#304
b1111 &
b1111 ,
b101111 4
b101110 :
#305
b10000 &
b10000 ,
b110000 4
b101111 :
#306
b10001 &
b10001 ,
b110001 4
b110000 :
#307
b10010 &
b10010 ,
b110010 4
b110001 :
#308
b10011 &
b10011 ,
b110011 4
b110010 :
#309
b10100 &
b10100 ,
b110100 4
b110011 :
#310
b10101 &
b10101 ,
b110101 4
b110100 :
#311
b10110 &
b10110 ,
b110110 4
b110101 :
#312
b10111 &
b10111 ,
b110111 4
b110110 :
#313
b11000 &
b11000 ,
b111000 4
b110111 :
#314
b11001 &
b11001 ,
b111001 4
b111000 :
#315
b11010 &
b11010 ,
b111010 4
b111001 :
#316
b11011 &
b11011 ,
b111011 4
b111010 :
#317
b11100 &
b11100 ,
b111100 4
b111011 :
#318
b11101 &
b11101 ,
b111101 4
b111100 :
#319
b11110 &
b11110 ,
b111110 4
b111101 :
#320
b11111 &
b11111 ,
b111111 4
b111110 :
#321
b100000 &
b100000 ,
b0 4
b111111 :
#322
b100001 &
b100001 ,
b1 4
b0 :
#323
b100010 &
b100010 ,
b10 4
b1 :
#324
b100011 &
b100011 ,
b11 4
b10 :
#325
b100100 &
b100100 ,
b100 4
b11 :
#326
b100101 &
b100101 ,
b101 4
b100 :
#327
b100110 &
b100110 ,
b110 4
b101 :
#328
b100111 &
b100111 ,
b111 4
b110 :
#329
b101000 &
b101000 ,
b1000 4
b111 :
#330
b101001 &
b101001 ,
b1001 4
b1000 :
#331
b101010 &
b101010 ,
b1010 4
b1001 :
#332
b101011 &
b101011 ,
b1011 4
b1010 :
#333
b101100 &
b101100 ,
b1100 4
b1011 :
#334
b101101 &
b101101 ,
b1101 4
b1100 :
#335
b101110 &
b101110 ,
b1110 4
b1101 :
#336
b101111 &
b101111 ,
b1111 4
b1110 :
#337
b110000 &
b110000 ,
b10000 4
b1111 :
#338
b110001 &
b110001 ,
b10001 4
b10000 :
#339
b110010 &
b110010 ,
b10010 4
b10001 :
#340
b110011 &
b110011 ,
b10011 4
b10010 :
#341
b110100 &
b110100 ,
b10100 4
b10011 :
#342
b110101 &
b110101 ,
b10101 4
b10100 :
#343
b110110 &
b110110 ,
b10110 4
b10101 :
#344
b110111 &
b110111 ,
b10111 4
b10110 :
#345
b111000 &
b111000 ,
b11000 4
b10111 :
#346
b111001 &
b111001 ,
b11001 4
b11000 :
#347
b111010 &
b111010 ,
b11010 4
b11001 :
#348
b111011 &
b111011 ,
b11011 4
b11010 :
#349
b111100 &
b111100 ,
b11100 4
b11011 :
#350
b111101 &
b111101 ,
b11101 4
b11100 :
#351
b111110 &
b111110 ,
b11110 4
b11101 :
#352
b111111 &
b111111 ,
b11111 4
b11110 :
#353
b0 &
b0 ,
b100000 4
b11111 :
#354
b1 &
b1 ,
b100001 4
b100000 :
#355
b10 &
b10 ,
b100010 4
b100001 :
#356
b11 &
b11 ,
b100011 4
b100010 :
#357
b100 &
b100 ,
b100100 4
b100011 :
#358
b101 &
b101 ,
b100101 4
b100100 :
#359
b110 &
b110 ,
b100110 4
b100101 :
#360
b111 &
b111 ,
b100111 4
b100110 :
#361
b1000 &
b1000 ,
b101000 4
b100111 :
#362
b1001 &
b1001 ,
b101001 4
b101000 :
#363
b1010 &
b1010 ,
b101010 4
b101001 :
#364
b1011 &
b1011 ,
b101011 4
b101010 :
#365
b1100 &
b1100 ,
b101100 4
b101011 :
#366
b1101 &
b1101 ,
b101101 4
b101100 :
#367
b1110 &
b1110 ,
b101110 4
b101101 :
#368
b1111 &
b1111 ,
b101111 4
b101110 :
#369
b10000 &
b10000 ,
b110000 4
b101111 :
#370
b10001 &
b10001 ,
b110001 4
b110000 :
#371
b10010 &
b10010 ,
b110010 4
b110001 :
#372
b10011 &
b10011 ,
b110011 4
b110010 :
#373
b10100 &
b10100 ,
b110100 4
b110011 :
#374
b10101 &
b10101 ,
b110101 4
b110100 :
#375
b10110 &
b10110 ,
b110110 4
b110101 :
#376
b10111 &
b10111 ,
b110111 4
b110110 :
#377
b11000 &
b11000 ,
b111000 4
b110111 :
#378
b11001 &
b11001 ,
b111001 4
b111000 :
#379
b11010 &
b11010 ,
b111010 4
b111001 :
#380
b11011 &
b11011 ,
b111011 4
b111010 :
#381
b11100 &
b11100 ,
b111100 4
b111011 :
#382
b11101 &
b11101 ,
b111101 4
b111100 :
#383
b11110 &
b11110 ,
b111110 4
b111101 :
#384
b11111 &
b11111 ,
b111111 4
b111110 :
#385
b100000 &
b100000 ,
b0 4
b111111 :
#386
b100001 &
b100001 ,
b1 4
b0 :
#387
b100010 &
b100010 ,
b10 4
b1 :
#388
b100011 &
b100011 ,
b11 4
b10 :
#389
b100100 &
b100100 ,
b100 4
b11 :
#390
b100101 &
b100101 ,
b101 4
b100 :
#391
b100110 &
b100110 ,
b110 4
b101 :
#392
b100111 &
b100111 ,
b111 4
b110 :
#393
b101000 &
b101000 ,
b1000 4
b111 :
#394
b101001 &
b101001 ,
b1001 4
b1000 :
#395
b101010 &
b101010 ,
b1010 4
b1001 :
#396
b101011 &
b101011 ,
b1011 4
b1010 :
#397
b101100 &
b101100 ,
b1100 4
b1011 :
#398
b101101 &
b101101 ,
b1101 4
b1100 :
#399
b101110 &
b101110 ,
b1110 4
b1101 :
#400
b101111 &
b101111 ,
b1111 4
b1110 :
#401
b110000 &
b110000 ,
b10000 4
b1111 :
#402
b110001 &
b110001 ,
b10001 4
b10000 :
#403
b110010 &
b110010 ,
b10010 4
b10001 :
#404
b110011 &
b110011 ,
b10011 4
b10010 :
#405
b110100 &
b110100 ,
b10100 4
b10011 :
#406
b110101 &
b110101 ,
b10101 4
b10100 :
#407
b110110 &
b110110 ,
b10110 4
b10101 :
#408
b110111 &
b110111 ,
b10111 4
b10110 :
#409
b111000 &
b111000 ,
b11000 4
b10111 :
#410
b111001 &
b111001 ,
b11001 4
b11000 :
#411
b111010 &
b111010 ,
b11010 4
b11001 :
#412
b111011 &
b111011 ,
b11011 4
b11010 :
#413
b111100 &
b111100 ,
b11100 4
b11011 :
#414
b111101 &
b111101 ,
b11101 4
b11100 :
#415
b111110 &
b111110 ,
b11110 4
b11101 :
#416
b111111 &
b111111 ,
b11111 4
b11110 :
#417
b0 &
b0 ,
b100000 4
b11111 :
#418
b1 &
b1 ,
b100001 4
b100000 :
#419
b10 &
b10 ,
b100010 4
b100001 :
#420
b11 &
b11 ,
b100011 4
b100010 :
#421
b100 &
b100 ,
b100100 4
b100011 :
#422
b101 &
b101 ,
b100101 4
b100100 :
#423
b110 &
b110 ,
b100110 4
b100101 :
#424
b111 &
b111 ,
b100111 4
b100110 :
#425
b1000 &
b1000 ,
b101000 4
b100111 :
#426
b1001 &
b1001 ,
b101001 4
b101000 :
#427
b1010 &
b1010 ,
b101010 4
b101001 :
#428
b1011 &
b1011 ,
b101011 4
b101010 :
#429
b1100 &
b1100 ,
b101100 4
b101011 :
#430
b1101 &
b1101 ,
b101101 4
b101100 :
#431
b1110 &
b1110 ,
b101110 4
b101101 :
#432
b1111 &
b1111 ,
b101111 4
b101110 :
#433
b10000 &
b10000 ,
b110000 4
b101111 :
#434
b10001 &
b10001 ,
b110001 4
b110000 :
#435
b10010 &
b10010 ,
b110010 4
b110001 :
#436
b10011 &
b10011 ,
b110011 4
b110010 :
#437
b10100 &
b10100 ,
b110100 4
b110011 :
#438
b10101 &
b10101 ,
b110101 4
b110100 :
#439
b10110 &
b10110 ,
b110110 4
b110101 :
#440
b10111 &
b10111 ,
b110111 4
b110110 :
#441
b11000 &
b11000 ,
b111000 4
b110111 :
#442
b11001 &
b11001 ,
b111001 4
b111000 :
#443
b11010 &
b11010 ,
b111010 4
b111001 :
#444
b11011 &
b11011 ,
b111011 4
b111010 :
#445
b11100 &
b11100 ,
b111100 4
b111011 :
#446
b11101 &
b11101 ,
b111101 4
b111100 :
#447
b11110 &
b11110 ,
b111110 4
b111101 :
#448
b11111 &
b11111 ,
b111111 4
b111110 :
#449
b100000 &
b100000 ,
b0 4
b111111 :
#450
b100001 &
b100001 ,
b1 4
b0 :
#451
b100010 &
b100010 ,
b10 4
b1 :
#452
b100011 &
b100011 ,
b11 4
b10 :
#453
b100100 &
b100100 ,
b100 4
b11 :
#454
b100101 &
b100101 ,
b101 4
b100 :
#455
b100110 &
b100110 ,
b110 4
b101 :
#456
b100111 &
b100111 ,
b111 4
b110 :
#457
b101000 &
b101000 ,
b1000 4
b111 :
#458
b101001 &
b101001 ,
b1001 4
b1000 :
#459
b101010 &
b101010 ,
b1010 4
b1001 :
#460
b101011 &
b101011 ,
b1011 4
b1010 :
#461
b101100 &
b101100 ,
b1100 4
b1011 :
#462
b101101 &
b101101 ,
b1101 4
b1100 :
#463
b101110 &
b101110 ,
b1110 4
b1101 :
#464
b101111 &
b101111 ,
b1111 4
b1110 :
#465
b110000 &
b110000 ,
b10000 4
b1111 :
#466
b110001 &
b110001 ,
b10001 4
b10000 :
#467
b110010 &
b110010 ,
b10010 4
b10001 :
#468
b110011 &
b110011 ,
b10011 4
b10010 :
#469
b110100 &
b110100 ,
b10100 4
b10011 :
#470
b110101 &
b110101 ,
b10101 4
b10100 :
#471
b110110 &
b110110 ,
b10110 4
b10101 :
#472
b110111 &
b110111 ,
b10111 4
b10110 :
#473
b111000 &
b111000 ,
b11000 4
b10111 :
#474
b111001 &
b111001 ,
b11001 4
b11000 :
#475
b111010 &
b111010 ,
b11010 4
b11001 :
#476
b111011 &
b111011 ,
b11011 4
b11010 :
#477
b111100 &
b111100 ,
b11100 4
b11011 :
#478
b111101 &
b111101 ,
b11101 4
b11100 :
#479
b111110 &
b111110 ,
b11110 4
b11101 :
#480
b111111 &
b111111 ,
b11111 4
b11110 :
#481
b0 &
b0 ,
b100000 4
b11111 :
#482
b1 &
b1 ,
b100001 4
b100000 :
#483
b10 &
b10 ,
b100010 4
b100001 :
#484
b11 &
b11 ,
b100011 4
b100010 :
#485
b100 &
b100 ,
b100100 4
b100011 :
#486
b101 &
b101 ,
b100101 4
b100100 :
#487
b110 &
b110 ,
b100110 4
b100101 :
#488
b111 &
b111 ,
b100111 4
b100110 :
#489
b1000 &
b1000 ,
b101000 4
b100111 :
#490
b1001 &
b1001 ,
b101001 4
b101000 :
#491
b1010 &
b1010 ,
b101010 4
b101001 :
#492
b1011 &
b1011 ,
b101011 4
b101010 :
#493
b1100 &
b1100 ,
b101100 4
b101011 :
#494
b1101 &
b1101 ,
b101101 4
b101100 :
#495
b1110 &
b1110 ,
b101110 4
b101101 :
#496
b1111 &
b1111 ,
b101111 4
b101110 :
#497
b10000 &
b10000 ,
b110000 4
b101111 :
#498
b10001 &
b10001 ,
b110001 4
b110000 :
#499
b10010 &
b10010 ,
b110010 4
b110001 :
#500
b10011 &
b10011 ,
b110011 4
b110010 :
#501
b10100 &
b10100 ,
b110100 4
b110011 :
#502
b10101 &
b10101 ,
b110101 4
b110100 :
#503
b10110 &
b10110 ,
b110110 4
b110101 :
#504
b10111 &
b10111 ,
b110111 4
b110110 :
#505
b11000 &
b11000 ,
b111000 4
b110111 :
#506
b11001 &
b11001 ,
b111001 4
b111000 :
#507
b11010 &
b11010 ,
b111010 4
b111001 :
#508
b11011 &
b11011 ,
b111011 4
b111010 :
#509
b11100 &
b11100 ,
b111100 4
b111011 :
#510
b11101 &
b11101 ,
b111101 4
b111100 :
#511
b11110 &
b11110 ,
b111110 4
b111101 :
#512
b11111 &
b11111 ,
b111111 4
b111110 :
1B
#513
b100000 &
b100000 ,
b0 4
b111111 :
#514
b100001 &
b100001 ,
b1 4
b0 :
#515
b100010 &
b100010 ,
b10 4
b1 :
#516
b100011 &
b100011 ,
b11 4
b10 :
#517
b100100 &
b100100 ,
b100 4
b11 :
#518
b100101 &
b100101 ,
b101 4
b100 :
#519
b100110 &
b100110 ,
b110 4
b101 :
#520
b100111 &
b100111 ,
b111 4
b110 :
#521
b101000 &
b101000 ,
b1000 4
b111 :
#522
b101001 &
b101001 ,
b1001 4
b1000 :
#523
b101010 &
b101010 ,
b1010 4
b1001 :
#524
b101011 &
b101011 ,
b1011 4
b1010 :
#525
b101100 &
b101100 ,
b1100 4
b1011 :
#526
b101101 &
b101101 ,
b1101 4
b1100 :
#527
b101110 &
b101110 ,
b1110 4
b1101 :
#528
b101111 &
b101111 ,
b1111 4
b1110 :
#529
b110000 &
b110000 ,
b10000 4
b1111 :
#530
b110001 &
b110001 ,
b10001 4
b10000 :
